%YAML 1.1
%TAG !u! tag:unity3d.com,2011:
--- !u!114 &11400000
MonoBehaviour:
  m_ObjectHideFlags: 0
  m_CorrespondingSourceObject: {fileID: 0}
  m_PrefabInstance: {fileID: 0}
  m_PrefabAsset: {fileID: 0}
  m_GameObject: {fileID: 0}
  m_Enabled: 1
  m_EditorHideFlags: 0
  m_Script: {fileID: 11500000, guid: 7c2c11d0461d9cf44bcb4291e6a38bf3, type: 3}
  m_Name: LevelObjectsSettings
  m_EditorClassIdentifier: 
  Prefabs:
  - {fileID: 6031238367721254606, guid: 38f2a9f0d87c1734c938171f343e5c65, type: 3}
