%YAML 1.1
%TAG !u! tag:unity3d.com,2011:
--- !u!114 &11400000
MonoBehaviour:
  m_ObjectHideFlags: 0
  m_CorrespondingSourceObject: {fileID: 0}
  m_PrefabInstance: {fileID: 0}
  m_PrefabAsset: {fileID: 0}
  m_GameObject: {fileID: 0}
  m_Enabled: 1
  m_EditorHideFlags: 0
  m_Script: {fileID: -1893448595, guid: a040fb66244a7f54289914d98ea4ef7d, type: 3}
  m_Name: ProductsTrigger
  m_EditorClassIdentifier: 
  _data:
    _json: '{"graph":{"variables":{"collection":{"$content":[],"$version":"A"},"$version":"A"},"controlInputDefinitions":[],"controlOutputDefinitions":[],"valueInputDefinitions":[],"valueOutputDefinitions":[],"title":null,"summary":null,"pan":{"x":1474.35,"y":-789.5611},"zoom":0.9,"elements":[{"coroutine":true,"defaultValues":{"target":null},"position":{"x":-253.0,"y":-520.0},"guid":"d6b1f9d9-48c8-4861-ba16-d14dce0e0480","$version":"A","$type":"Bolt.OnTriggerEnter","$id":"9"},{"specifyFallback":false,"kind":"Object","defaultValues":{"name":{"$content":"get_fx","$type":"System.String"},"object":null},"position":{"x":1029.0,"y":-777.0},"guid":"ebb75efe-595d-4875-81f6-6b80bcb38140","$version":"A","$type":"Bolt.GetVariable","$id":"11"},{"specifyFallback":false,"kind":"Object","defaultValues":{"name":{"$content":"Banan","$type":"System.String"},"object":null},"position":{"x":383.0,"y":-758.0},"guid":"7b698ae0-0779-49d0-9457-868c9d66d992","$version":"A","$type":"Bolt.GetVariable","$id":"13"},{"specifyFallback":false,"kind":"Object","defaultValues":{"name":{"$content":"Banan","$type":"System.String"},"object":null},"position":{"x":523.0,"y":-322.0},"guid":"c4a7883c-7a19-4f2d-82c0-2ff0487497d8","$version":"A","$type":"Bolt.GetVariable","$id":"15"},{"specifyFallback":false,"kind":"Object","defaultValues":{"name":{"$content":"rack","$type":"System.String"},"object":null},"position":{"x":829.0,"y":-696.0},"guid":"db845039-ef47-4806-a53e-800624e6e16c","$version":"A","$type":"Bolt.GetVariable","$id":"17"},{"chainable":false,"member":{"name":"SetActive","parameterTypes":["System.Boolean"],"targetType":"UnityEngine.GameObject","targetTypeName":"UnityEngine.GameObject","$version":"A"},"defaultValues":{"target":{"$content":0,"$type":"UnityEngine.Object"},"%value":{"$content":false,"$type":"System.Boolean"}},"position":{"x":618.0,"y":-770.0},"guid":"2c5de2c7-4b55-48aa-bd84-1e321aaa72db","$version":"A","$type":"Bolt.InvokeMember","$id":"19"},{"specifyFallback":false,"kind":"Object","defaultValues":{"name":{"$content":"rack","$type":"System.String"},"object":null},"position":{"x":832.0,"y":-1140.0},"guid":"35ae9bbf-8ff2-4dd3-bec7-2186ce05676b","$version":"A","$type":"Bolt.GetVariable","$id":"22"},{"kind":"Scene","defaultValues":{"name":{"$content":"Squash","$type":"System.String"}},"position":{"x":312.0,"y":-523.0},"guid":"69529e88-2078-40b9-be45-46227b7fa280","$version":"A","$type":"Bolt.SetVariable","$id":"24"},{"chainable":false,"member":{"name":"enabled","parameterTypes":null,"targetType":"UnityEngine.MeshRenderer","targetTypeName":"UnityEngine.MeshRenderer","$version":"A"},"defaultValues":{"target":null,"input":{"$content":false,"$type":"System.Boolean"}},"position":{"x":686.0,"y":-523.0},"guid":"572a6565-5f74-4dbf-b7dc-69b508b231ce","$version":"A","$type":"Bolt.SetMember","$id":"26"},{"defaultValues":{},"position":{"x":182.0,"y":-518.0},"guid":"586512bf-0e21-49db-b010-4906d2ee7984","$version":"A","$type":"Bolt.Branch","$id":"29"},{"chainable":false,"member":{"name":"Play","parameterTypes":[],"targetType":"UnityEngine.ParticleSystem","targetTypeName":"UnityEngine.ParticleSystem","$version":"A"},"defaultValues":{"target":null},"position":{"x":1246.0,"y":-700.0},"guid":"742bf307-97df-455b-af90-de8eb5521942","$version":"A","$type":"Bolt.InvokeMember","$id":"31"},{"chainable":false,"member":{"name":"SetFloat","parameterTypes":["System.String","System.Single"],"targetType":"UnityEngine.Animator","targetTypeName":"UnityEngine.Animator","$version":"A"},"defaultValues":{"target":null,"%name":{"$content":"Pulse","$type":"System.String"},"%value":{"$content":1.0,"$type":"System.Single"}},"position":{"x":1027.0,"y":-615.0},"guid":"aceccfc5-bc7c-4acd-80b1-0e6b3fe0d630","$version":"A","$type":"Bolt.InvokeMember","$id":"34"},{"chainable":false,"member":{"name":"enabled","parameterTypes":null,"targetType":"UnityEngine.UI.Toggle","targetTypeName":"UnityEngine.UI.Toggle","$version":"A"},"defaultValues":{"target":null,"input":{"$content":true,"$type":"System.Boolean"}},"position":{"x":1550.0,"y":-781.0},"guid":"78b33a2e-ea74-446f-bb9e-186ea267b37d","$version":"A","$type":"Bolt.SetMember"},{"chainable":false,"member":{"name":"SetFloat","parameterTypes":["System.String","System.Single"],"targetType":"UnityEngine.Animator","targetTypeName":"UnityEngine.Animator","$version":"A"},"defaultValues":{"target":null,"%name":{"$content":"Pulse","$type":"System.String"},"%value":{"$content":0.0,"$type":"System.Single"}},"position":{"x":1020.0,"y":-1059.0},"guid":"262a12e8-1080-4104-85d5-15e58ee45381","$version":"A","$type":"Bolt.InvokeMember","$id":"40"},{"type":"System.Single","value":{"$content":1.0,"$type":"System.Single"},"defaultValues":{},"position":{"x":52.0,"y":-356.0},"guid":"c3c985b6-f511-4211-bbac-84ce505381c0","$version":"A","$type":"Bolt.Literal","$id":"43"},{"chainable":false,"member":{"name":"CompareTag","parameterTypes":["System.String"],"targetType":"UnityEngine.GameObject","targetTypeName":"UnityEngine.GameObject","$version":"A"},"defaultValues":{"target":null,"%tag":{"$content":"Character","$type":"System.String"}},"position":{"x":5.0,"y":-518.0},"guid":"15f88b03-af3b-4ea5-8d2f-d504716946ae","$version":"A","$type":"Bolt.InvokeMember","$id":"45"},{"chainable":false,"member":{"name":"CompareTag","parameterTypes":["System.String"],"targetType":"UnityEngine.GameObject","targetTypeName":"UnityEngine.GameObject","$version":"A"},"defaultValues":{"target":null,"%tag":{"$content":"Character","$type":"System.String"}},"position":{"x":-15.0,"y":-1005.0},"guid":"abefff17-0f00-4614-b061-a447805aadaa","$version":"A","$type":"Bolt.InvokeMember","$id":"48"},{"kind":"Scene","defaultValues":{"name":{"$content":"Squash","$type":"System.String"}},"position":{"x":401.0,"y":-987.0},"guid":"61698f68-d9ed-4396-b3b6-0db4c9fe842c","$version":"A","$type":"Bolt.SetVariable","$id":"51"},{"defaultValues":{},"position":{"x":182.0,"y":-1009.0},"guid":"87062e28-dbb3-4a28-ae7c-e8cc820fb467","$version":"A","$type":"Bolt.Branch","$id":"53"},{"coroutine":true,"defaultValues":{"target":null},"position":{"x":-274.0,"y":-1009.0},"guid":"1b178f35-22e0-4c92-b69a-9b117f8a9d50","$version":"A","$type":"Bolt.OnTriggerExit","$id":"55"},{"chainable":false,"member":{"name":"enabled","parameterTypes":null,"targetType":"UnityEngine.Collider","targetTypeName":"UnityEngine.Collider","$version":"A"},"defaultValues":{"target":null,"input":{"$content":false,"$type":"System.Boolean"}},"position":{"x":605.0,"y":-990.0},"guid":"a1b5bcad-5bdd-435a-9c03-99138dfaa89d","$version":"A","$type":"Bolt.SetMember","$id":"57"},{"type":"System.Single","value":{"$content":0.0,"$type":"System.Single"},"defaultValues":{},"position":{"x":166.0,"y":-797.0},"guid":"28f9e656-f127-4bfb-8708-5902a8b0aaa5","$version":"A","$type":"Bolt.Literal","$id":"60"},{"sourceUnit":{"$ref":"57"},"sourceKey":"assigned","destinationUnit":{"$ref":"40"},"destinationKey":"enter","guid":"6530e6f0-6b2f-46ee-bc83-140b0627b6ea","$type":"Bolt.ControlConnection"},{"sourceUnit":{"$ref":"51"},"sourceKey":"assigned","destinationUnit":{"$ref":"57"},"destinationKey":"assign","guid":"e6f263d1-42be-4298-9d20-dad13cbfc707","$type":"Bolt.ControlConnection"},{"sourceUnit":{"$ref":"24"},"sourceKey":"assigned","destinationUnit":{"$ref":"26"},"destinationKey":"assign","guid":"b8a98b82-28b9-4f0b-9d9d-2fee591e2a62","$type":"Bolt.ControlConnection"},{"sourceUnit":{"$ref":"53"},"sourceKey":"ifTrue","destinationUnit":{"$ref":"51"},"destinationKey":"assign","guid":"b172b0f1-a760-4e93-b049-9050ff2af98f","$type":"Bolt.ControlConnection"},{"sourceUnit":{"$ref":"29"},"sourceKey":"ifTrue","destinationUnit":{"$ref":"24"},"destinationKey":"assign","guid":"6ad4e4a5-c737-4833-8372-83dea70071d3","$type":"Bolt.ControlConnection"},{"sourceUnit":{"$ref":"48"},"sourceKey":"exit","destinationUnit":{"$ref":"53"},"destinationKey":"enter","guid":"269f3fc4-ba85-4e19-ad19-60f928dfca5f","$type":"Bolt.ControlConnection"},{"sourceUnit":{"$ref":"55"},"sourceKey":"trigger","destinationUnit":{"$ref":"48"},"destinationKey":"enter","guid":"8c32086a-0efe-43fc-a36a-fc6087f9a561","$type":"Bolt.ControlConnection"},{"sourceUnit":{"$ref":"26"},"sourceKey":"assigned","destinationUnit":{"$ref":"34"},"destinationKey":"enter","guid":"b24d718d-87ed-4105-86ac-ff04d20b28f8","$type":"Bolt.ControlConnection"},{"sourceUnit":{"$ref":"45"},"sourceKey":"exit","destinationUnit":{"$ref":"29"},"destinationKey":"enter","guid":"6b295344-afbf-46c9-b74d-c6bb9eaf369d","$type":"Bolt.ControlConnection"},{"sourceUnit":{"$ref":"34"},"sourceKey":"exit","destinationUnit":{"$ref":"31"},"destinationKey":"enter","guid":"44bf698e-0687-4630-a56d-81b337c6e944","$type":"Bolt.ControlConnection"},{"sourceUnit":{"$ref":"9"},"sourceKey":"trigger","destinationUnit":{"$ref":"45"},"destinationKey":"enter","guid":"c223be49-c95b-45b3-982c-b12c774d69db","$type":"Bolt.ControlConnection"},{"sourceUnit":{"$ref":"48"},"sourceKey":"result","destinationUnit":{"$ref":"53"},"destinationKey":"condition","guid":"ab61075c-b9ac-421b-90c3-2308479b5765","$type":"Bolt.ValueConnection"},{"sourceUnit":{"$ref":"43"},"sourceKey":"output","destinationUnit":{"$ref":"24"},"destinationKey":"input","guid":"0610d03c-a99b-4dc1-aaf8-f8a03965c20e","$type":"Bolt.ValueConnection"},{"sourceUnit":{"$ref":"15"},"sourceKey":"value","destinationUnit":{"$ref":"26"},"destinationKey":"target","guid":"bae00f02-b6d9-4dc8-ba34-8ded9de9079c","$type":"Bolt.ValueConnection"},{"sourceUnit":{"$ref":"60"},"sourceKey":"output","destinationUnit":{"$ref":"51"},"destinationKey":"input","guid":"1525e650-d755-4f85-9a1d-6db8fcb4e105","$type":"Bolt.ValueConnection"},{"sourceUnit":{"$ref":"9"},"sourceKey":"collider","destinationUnit":{"$ref":"45"},"destinationKey":"target","guid":"bc5d2ec0-9b3b-4f61-8fdc-61bfe5d7931a","$type":"Bolt.ValueConnection"},{"sourceUnit":{"$ref":"13"},"sourceKey":"value","destinationUnit":{"$ref":"19"},"destinationKey":"target","guid":"28fce5b5-37b5-49e8-9747-7416012b51e7","$type":"Bolt.ValueConnection"},{"sourceUnit":{"$ref":"45"},"sourceKey":"result","destinationUnit":{"$ref":"29"},"destinationKey":"condition","guid":"c60e3182-81c1-43cf-99e8-a3563d59ba69","$type":"Bolt.ValueConnection"},{"sourceUnit":{"$ref":"17"},"sourceKey":"value","destinationUnit":{"$ref":"34"},"destinationKey":"target","guid":"558357b4-12c1-4776-a289-547e90287413","$type":"Bolt.ValueConnection"},{"sourceUnit":{"$ref":"55"},"sourceKey":"collider","destinationUnit":{"$ref":"48"},"destinationKey":"target","guid":"9482964a-d118-4b41-a22e-c76950dfc727","$type":"Bolt.ValueConnection"},{"sourceUnit":{"$ref":"22"},"sourceKey":"value","destinationUnit":{"$ref":"40"},"destinationKey":"target","guid":"640e18a2-14c5-4d4b-8f4b-3cb851af6b22","$type":"Bolt.ValueConnection"},{"sourceUnit":{"$ref":"11"},"sourceKey":"value","destinationUnit":{"$ref":"31"},"destinationKey":"target","guid":"98e7dd8f-75df-4a0a-b0f7-2cf8e98b8fd0","$type":"Bolt.ValueConnection"}],"$version":"A"}}'
    _objectReferences:
    - {fileID: 919132149155446097, guid: 5184443a5b6b2fc4aa5e7c4a3dbb4e67, type: 3}
